HW8
…
data$Date<- dmy(data$Date)

print(data)

# A tibble: 8,760 × 14
   Date       `Rented Bike Count`  Hour `Temperature(°C)` `Humidity(%)`
   <date>                   <dbl> <dbl>             <dbl>         <dbl>
 1 2017-12-01                 254     0              -5.2            37
 2 2017-12-01                 204     1              -5.5            38
 3 2017-12-01                 173     2              -6              39
 4 2017-12-01                 107     3              -6.2            40
 5 2017-12-01                  78     4              -6              36
 6 2017-12-01                 100     5              -6.4            37
 7 2017-12-01                 181     6              -6.6            35
 8 2017-12-01                 460     7              -7.4            38
 9 2017-12-01                 930     8              -7.6            37
10 2017-12-01                 490     9              -6.5            27
# ℹ 8,750 more rows
# ℹ 9 more variables: `Wind speed (m/s)` <dbl>, `Visibility (10m)` <dbl>,
#   `Dew point temperature(°C)` <dbl>, `Solar Radiation (MJ/m2)` <dbl>,
#   `Rainfall(mm)` <dbl>, `Snowfall (cm)` <dbl>, Seasons <chr>, Holiday <chr>,
#   `Functioning Day` <chr>

data<-data|>
  mutate(Seasons=as.factor(Seasons),
         Holiday=as.factor(Holiday),
         `Functioning Day`=as.factor(`Functioning Day`))

print(data)

# A tibble: 8,760 × 14
   Date       `Rented Bike Count`  Hour `Temperature(°C)` `Humidity(%)`
   <date>                   <dbl> <dbl>             <dbl>         <dbl>
 1 2017-12-01                 254     0              -5.2            37
 2 2017-12-01                 204     1              -5.5            38
 3 2017-12-01                 173     2              -6              39
 4 2017-12-01                 107     3              -6.2            40
 5 2017-12-01                  78     4              -6              36
 6 2017-12-01                 100     5              -6.4            37
 7 2017-12-01                 181     6              -6.6            35
 8 2017-12-01                 460     7              -7.4            38
 9 2017-12-01                 930     8              -7.6            37
10 2017-12-01                 490     9              -6.5            27
# ℹ 8,750 more rows
# ℹ 9 more variables: `Wind speed (m/s)` <dbl>, `Visibility (10m)` <dbl>,
#   `Dew point temperature(°C)` <dbl>, `Solar Radiation (MJ/m2)` <dbl>,
#   `Rainfall(mm)` <dbl>, `Snowfall (cm)` <dbl>, Seasons <fct>, Holiday <fct>,
#   `Functioning Day` <fct>
…
#create a list to save our folds in
folds <- list()
#now cycle through our random indices vector and take the appropriate observations to each fold
for(i in 1:10){
  if (i < 10) {
    fold_index <- seq(from = (i-1)*size_fold +1, to = i*size_fold, by = 1)
    folds[[i]] <- training[random_indices[fold_index], ]
  } else {
    fold_index <- seq(from = (i-1)*size_fold +1, to = length(random_indices), by = 1)
    folds[[i]] <- training[random_indices[fold_index], ]
  }
}
folds[[1]]

# A tibble: 27 × 12
# Groups:   Date, season [27]
   Date       season holiday    sum_rbc sum_rain sum_snow mean_temp mean_hum
   <date>     <fct>  <fct>        <dbl>    <dbl>    <dbl>     <dbl>    <dbl>
 1 2018-08-04 Summer No Holiday   18363      0        0      31.2       59.0
 2 2017-12-26 Winter No Holiday    5605      0        0      -3.27      43.6
 3 2018-03-16 Spring No Holiday   15277      0        0       7.35      50.0
 4 2018-09-23 Autumn Holiday      20060      0        0      19.4       54.8
 5 2018-05-09 Spring No Holiday   28895      0        0      15.5       50.0
 6 2018-07-18 Summer No Holiday   27896      0        0      28.2       65.2
 7 2018-01-01 Winter Holiday       4290      0        0      -1.28      39.3
 8 2018-02-03 Winter No Holiday    3290      0.5      2.2    -6.62      48.9
 9 2018-02-06 Winter No Holiday    3988      0        0     -10.0       35.5
10 2017-12-21 Winter No Holiday    5734      0       38.9    -0.846     73.1
# ℹ 17 more rows
# ℹ 4 more variables: mean_ws <dbl>, mean_vis <dbl>, mean_dpttemp <dbl>,
#   mean_solrad <dbl>
…
#set the test fold number
test_number <- 10
#pull out the testing fold
test <- folds[[test_number]]
test

# A tibble: 30 × 12
# Groups:   Date, season [30]
   Date       season holiday    sum_rbc sum_rain sum_snow mean_temp mean_hum
   <date>     <fct>  <fct>        <dbl>    <dbl>    <dbl>     <dbl>    <dbl>
 1 2018-07-11 Summer No Holiday   24135      3.5      0      26.6       84  
 2 2018-04-20 Spring No Holiday   22593      0        0      18.1       45.8
 3 2018-05-31 Spring No Holiday   31681      0        0      20.5       61.2
 4 2018-03-13 Spring No Holiday   15963      0        0      11.6       59.2
 5 2018-06-11 Summer No Holiday   24832      4        0      20.6       63.4
 6 2017-12-04 Winter No Holiday    8729      0.1      0      -0.304     52.5
 7 2018-08-23 Summer No Holiday   15958      2.5      0      29.6       58.2
 8 2018-10-10 Autumn No Holiday   24410      7        0      12.8       61.3
 9 2018-02-04 Winter No Holiday    2487      0        0      -9.52      41  
10 2018-01-10 Winter No Holiday    4161      0.8     10.2    -7.03      54.2
# ℹ 20 more rows
# ℹ 4 more variables: mean_ws <dbl>, mean_vis <dbl>, mean_dpttemp <dbl>,
#   mean_solrad <dbl>
