HW8
…
Splitting the data on a 75/25 split.

data_split<-initial_split(Model_data,strata=season,prop=0.75)
data_training<-training(data_split)
data_test<-testing(data_split)

print(data_training)

# A tibble: 273 × 12
# Groups:   Date, season [273]
   Date       season holiday    sum_rbc sum_rain sum_snow mean_temp mean_hum
   <date>     <fct>  <fct>        <dbl>    <dbl>    <dbl>     <dbl>    <dbl>
 1 2018-09-01 Autumn No Holiday   26010      0          0      25.5     61.2
 2 2018-09-02 Autumn No Holiday   26881      0          0      25.0     54.5
 3 2018-09-04 Autumn No Holiday   29529      0          0      23.3     71.6
 4 2018-09-06 Autumn No Holiday   27838      0          0      24.2     70.8
 5 2018-09-07 Autumn No Holiday   30381      1.5        0      22.2     56.9
 6 2018-09-08 Autumn No Holiday   29813      0          0      21.7     48.7
 7 2018-09-10 Autumn No Holiday   30781      0          0      22.9     50.1
 8 2018-09-11 Autumn No Holiday   31694      0          0      21.6     48.0
 9 2018-09-14 Autumn No Holiday   28199      0.5        0      23.5     67.2
10 2018-09-15 Autumn No Holiday   25079      0.2        0      23.2     75.9
# ℹ 263 more rows
# ℹ 4 more variables: mean_ws <dbl>, mean_vis <dbl>, mean_dpttemp <dbl>,
#   mean_solrad <dbl>

print(data_test)

# A tibble: 92 × 12
# Groups:   Date, season [92]
   Date       season holiday    sum_rbc sum_rain sum_snow mean_temp mean_hum
   <date>     <fct>  <fct>        <dbl>    <dbl>    <dbl>     <dbl>    <dbl>
 1 2017-12-01 Winter No Holiday    9539      0        0      -2.45      45.9
 2 2017-12-04 Winter No Holiday    8729      0.1      0      -0.304     52.5
 3 2017-12-09 Winter No Holiday    7233      0        0      -0.846     46  
 4 2017-12-13 Winter No Holiday    6019      0        0      -8.62      41.2
 5 2017-12-17 Winter No Holiday    3776      0        0      -7.01      37.6
 6 2017-12-19 Winter No Holiday    4334      0       55.6    -3.53      50.2
 7 2017-12-21 Winter No Holiday    5734      0       38.9    -0.846     73.1
 8 2017-12-22 Winter Holiday       7184      0        7.7     2.76      67.1
 9 2017-12-25 Winter Holiday       3966      0        0      -2.09      43.4
10 2017-12-28 Winter No Holiday    6594      0        0      -2.58      45.0
# ℹ 82 more rows
# ℹ 4 more variables: mean_ws <dbl>, mean_vis <dbl>, mean_dpttemp <dbl>,
#   mean_solrad <dbl>
…
── Model ───────────────────────────────────────────────────────────────────────
Linear Regression Model Specification (regression)

Computational engine: lm 

fit<-wkfl|>
  fit(data_training)
fit|>
  tidy()

# A tibble: 21 × 5
   term          estimate std.error statistic  p.value
   <chr>            <dbl>     <dbl>     <dbl>    <dbl>
 1 (Intercept)     21218.      968.    21.9   2.33e-60
 2 sum_rain        -2214.      722.    -3.07  2.40e- 3
 3 sum_snow         -214.      351.    -0.608 5.44e- 1
 4 mean_temp       -7391.     7344.    -1.01  3.15e- 1
 5 mean_hum        -3240.     2730.    -1.19  2.36e- 1
 6 mean_ws          -498.      374.    -1.33  1.85e- 1
 7 mean_vis         -146.      479.    -0.304 7.61e- 1
 8 mean_dpttemp     9741.     8601.     1.13  2.58e- 1
 9 mean_solrad      3413.      584.     5.84  1.61e- 8
10 season_Spring   -1345.      440.    -3.06  2.49e- 3
# ℹ 11 more rows
…
── Model ───────────────────────────────────────────────────────────────────────
Linear Regression Model Specification (regression)

Computational engine: lm 

fit<-wkfl|>
  fit(data_training)
fit|>
  tidy()

# A tibble: 21 × 5
   term          estimate std.error statistic  p.value
   <chr>            <dbl>     <dbl>     <dbl>    <dbl>
 1 (Intercept)     21218.      968.    21.9   2.33e-60
 2 sum_rain        -2214.      722.    -3.07  2.40e- 3
 3 sum_snow         -214.      351.    -0.608 5.44e- 1
 4 mean_temp       -7391.     7344.    -1.01  3.15e- 1
 5 mean_hum        -3240.     2730.    -1.19  2.36e- 1
 6 mean_ws          -498.      374.    -1.33  1.85e- 1
 7 mean_vis         -146.      479.    -0.304 7.61e- 1
 8 mean_dpttemp     9741.     8601.     1.13  2.58e- 1
 9 mean_solrad      3413.      584.     5.84  1.61e- 8
10 season_Spring   -1345.      440.    -3.06  2.49e- 3
# ℹ 11 more rows
